…
##### Task menu 4

**How is life expectancy changing over time on different continents**

Firstly, we need to print the data.

``` r
lifeExp_change<-gapminder %>%
  group_by(continent,year) %>%
  summarize(meanlifeExp=mean(lifeExp))
lifeExp_change
```

    ## # A tibble: 60 x 3
    ## # Groups:   continent [?]
    ##    continent  year meanlifeExp
    ##    <fct>     <int>       <dbl>
    ##  1 Africa     1952        39.1
    ##  2 Africa     1957        41.3
    ##  3 Africa     1962        43.3
    ##  4 Africa     1967        45.3
    ##  5 Africa     1972        47.5
    ##  6 Africa     1977        49.6
    ##  7 Africa     1982        51.6
    ##  8 Africa     1987        53.3
    ##  9 Africa     1992        53.6
    ## 10 Africa     1997        53.6
    ## # ... with 50 more rows
…
We can see that the increasing rate of mean life expectancy is highest over years.

I'm going to figure out how is life expectancy changing each 5 years on different continents.

Still,we print the data, the year is recorded by each 5 year, so we need to use this year minus previous yearm and record it as `change5`.

``` r
change5 <- lifeExp_change %>%
  mutate(change=meanlifeExp-lag(meanlifeExp)) %>%
  filter(!is.na(change))
change5
```

    ## # A tibble: 55 x 4
    ## # Groups:   continent [5]
    ##    continent  year meanlifeExp  change
    ##    <fct>     <int>       <dbl>   <dbl>
    ##  1 Africa     1957        41.3  2.13  
    ##  2 Africa     1962        43.3  2.05  
    ##  3 Africa     1967        45.3  2.02  
    ##  4 Africa     1972        47.5  2.12  
    ##  5 Africa     1977        49.6  2.13  
    ##  6 Africa     1982        51.6  2.01  
    ##  7 Africa     1987        53.3  1.75  
    ##  8 Africa     1992        53.6  0.285 
    ##  9 Africa     1997        53.6 -0.0313
    ## 10 Africa     2002        53.3 -0.273 
    ## # ... with 45 more rows
…
    ## # A tibble: 1 x 1
    ##    mean
    ##   <dbl>
    ## 1  59.5

``` r
lowlexp <- gapminder %>%
  group_by(continent,country) %>%
  filter(lifeExp < 59.5) %>%
  arrange(lifeExp)
lowlexp
```

    ## # A tibble: 810 x 6
    ## # Groups:   continent, country [105]
    ##    country      continent  year lifeExp     pop gdpPercap
    ##    <fct>        <fct>     <int>   <dbl>   <int>     <dbl>
    ##  1 Rwanda       Africa     1992    23.6 7290203      737.
    ##  2 Afghanistan  Asia       1952    28.8 8425333      779.
    ##  3 Gambia       Africa     1952    30    284320      485.
    ##  4 Angola       Africa     1952    30.0 4232095     3521.
    ##  5 Sierra Leone Africa     1952    30.3 2143249      880.
    ##  6 Afghanistan  Asia       1957    30.3 9240934      821.
    ##  7 Cambodia     Asia       1977    31.2 6978607      525.
    ##  8 Mozambique   Africa     1952    31.3 6446316      469.
    ##  9 Sierra Leone Africa     1957    31.6 2295678     1004.
    ## 10 Burkina Faso Africa     1952    32.0 4469979      543.
    ## # ... with 800 more rows

From this graph, we can conclude that the life expectancy of most countries in Europe is high, also no country with low life expectancy in Oceania, and the proportion of country with high and low life expectancy is almost the same in Asia.

``` r
lifeExphighorlow <- gapminder %>%
  mutate(low = if_else(lifeExp >59.5,"High","Low")) 
lifeExphighorlow
```

    ## # A tibble: 1,704 x 7
    ##    country     continent  year lifeExp      pop gdpPercap low  
    ##    <fct>       <fct>     <int>   <dbl>    <int>     <dbl> <chr>
    ##  1 Afghanistan Asia       1952    28.8  8425333      779. Low  
    ##  2 Afghanistan Asia       1957    30.3  9240934      821. Low  
    ##  3 Afghanistan Asia       1962    32.0 10267083      853. Low  
    ##  4 Afghanistan Asia       1967    34.0 11537966      836. Low  
    ##  5 Afghanistan Asia       1972    36.1 13079460      740. Low  
    ##  6 Afghanistan Asia       1977    38.4 14880372      786. Low  
    ##  7 Afghanistan Asia       1982    39.9 12881816      978. Low  
    ##  8 Afghanistan Asia       1987    40.8 13867957      852. Low  
    ##  9 Afghanistan Asia       1992    41.7 16317921      649. Low  
    ## 10 Afghanistan Asia       1997    41.8 22227415      635. Low  
    ## # ... with 1,694 more rows
…
**Find countries with interesting stories. Open-ended and, therefore, hard. Promising but unsuccessful attempts are encouraged. This will generate interesting questions to follow up on in class.**

According to the informatin we disscussed above, I wonder if there's a relationship between populaton and gdp per captia in Europe,because we didn't discuss a lot of *Europe*. Let's try to print the data first.

``` r
countries<- gapminder %>%
  filter(continent == "Europe") %>%
  group_by(country,year)

#show the data 
countries
```

    ## # A tibble: 360 x 6
    ## # Groups:   country, year [360]
    ##    country continent  year lifeExp     pop gdpPercap
    ##    <fct>   <fct>     <int>   <dbl>   <int>     <dbl>
    ##  1 Albania Europe     1952    55.2 1282697     1601.
    ##  2 Albania Europe     1957    59.3 1476505     1942.
    ##  3 Albania Europe     1962    64.8 1728137     2313.
    ##  4 Albania Europe     1967    66.2 1984060     2760.
    ##  5 Albania Europe     1972    67.7 2263554     3313.
    ##  6 Albania Europe     1977    68.9 2509048     3533.
    ##  7 Albania Europe     1982    70.4 2780097     3631.
    ##  8 Albania Europe     1987    72   3075321     3739.
    ##  9 Albania Europe     1992    71.6 3326498     2497.
    ## 10 Albania Europe     1997    73.0 3428038     3193.
    ## # ... with 350 more rows
…
